%YAML 1.1
%TAG !u! tag:unity3d.com,2011:
--- !u!114 &11400000
MonoBehaviour:
  m_ObjectHideFlags: 0
  m_CorrespondingSourceObject: {fileID: 0}
  m_PrefabInternal: {fileID: 0}
  m_GameObject: {fileID: 0}
  m_Enabled: 1
  m_EditorHideFlags: 0
  m_Script: {fileID: 11500000, guid: 4b7f04028cfb4758884c2b37d9ac6823, type: 3}
  m_Name: WaterLevel001FormConfig
  m_EditorClassIdentifier: 
  developerDescription: 
  BASE_URL: https://docs.google.com/forms/u/2/d/e/1FAIpQLSdSMEi7IynqxnND_EM3Q2mbKbJ5-H8aXPZeXJzNYcDStkdplQ/formResponse
  keys:
  - entry.529928426
  - entry.1691214980
  - entry.1341860570
  - entry.766036509
  - entry.2104587349
  - entry.355007766
  - entry.1192970873
  values: []
