%YAML 1.1
%TAG !u! tag:unity3d.com,2011:
--- !u!1001 &100100000
Prefab:
  m_ObjectHideFlags: 1
  serializedVersion: 2
  m_Modification:
    m_TransformParent: {fileID: 0}
    m_Modifications: []
    m_RemovedComponents: []
  m_SourcePrefab: {fileID: 0}
  m_RootGameObject: {fileID: 1432243524903422}
  m_IsPrefabAsset: 1
--- !u!1 &1432243524903422
GameObject:
  m_ObjectHideFlags: 0
  m_CorrespondingSourceObject: {fileID: 0}
  m_PrefabInternal: {fileID: 100100000}
  serializedVersion: 6
  m_Component:
  - component: {fileID: 4986287058473988}
  - component: {fileID: 114540735452399490}
  m_Layer: 0
  m_Name: OceanWaterPropertySetter
  m_TagString: Untagged
  m_Icon: {fileID: 0}
  m_NavMeshLayer: 0
  m_StaticEditorFlags: 0
  m_IsActive: 1
--- !u!4 &4986287058473988
Transform:
  m_ObjectHideFlags: 1
  m_CorrespondingSourceObject: {fileID: 0}
  m_PrefabInternal: {fileID: 100100000}
  m_GameObject: {fileID: 1432243524903422}
  m_LocalRotation: {x: -0, y: -0, z: -0, w: 1}
  m_LocalPosition: {x: -0.2263127, y: 16.412092, z: -3.1813164}
  m_LocalScale: {x: 1, y: 1, z: 1}
  m_Children: []
  m_Father: {fileID: 0}
  m_RootOrder: 0
  m_LocalEulerAnglesHint: {x: 0, y: 0, z: 0}
--- !u!114 &114540735452399490
MonoBehaviour:
  m_ObjectHideFlags: 1
  m_CorrespondingSourceObject: {fileID: 0}
  m_PrefabInternal: {fileID: 100100000}
  m_GameObject: {fileID: 1432243524903422}
  m_Enabled: 1
  m_EditorHideFlags: 0
  m_Script: {fileID: 11500000, guid: 7b610d095b4e1b044805a720533b3ce8, type: 3}
  m_Name: 
  m_EditorClassIdentifier: 
  waterRenderers:
  - {fileID: 0}
  - {fileID: 0}
  waterColor: {r: 0.18431373, g: 0.666, b: 0.9921569, a: 1}
  waterTex: {fileID: 2800000, guid: b3b93417e764a48438369dfd5de14b56, type: 3}
  waterTile: {x: 0.15, y: 0.15}
  textureVisibility: 0.276
  distortionTex: {fileID: 2800000, guid: f6acd684980920849a180e1c541fb199, type: 3}
  distortionTile: {x: 0.06, y: 0.17}
  waterHeight: -0.72
  waterDeep: 22.9
  waterDepthParam: 0.0406
  waterMinAlpha: 0.552
  borderColor: {r: 1, g: 1, b: 1, a: 0.622}
  borderWidth: 0.184
  moveDirection: {x: 0.3, y: 0.7}
