%YAML 1.1
%TAG !u! tag:unity3d.com,2011:
--- !u!114 &11400000
MonoBehaviour:
  m_ObjectHideFlags: 0
  m_CorrespondingSourceObject: {fileID: 0}
  m_PrefabInternal: {fileID: 0}
  m_GameObject: {fileID: 0}
  m_Enabled: 1
  m_EditorHideFlags: 0
  m_Script: {fileID: 11500000, guid: fdebb48be9a8047a99b591fe8a99a599, type: 3}
  m_Name: WaitForStartState
  m_EditorClassIdentifier: 
  developerDescription: 
  running: 0
  showGameOverMenu: 0
  showStartMenu: 1
