%YAML 1.1
%TAG !u! tag:unity3d.com,2011:
--- !u!114 &11400000
MonoBehaviour:
  m_ObjectHideFlags: 0
  m_CorrespondingSourceObject: {fileID: 0}
  m_PrefabInternal: {fileID: 0}
  m_GameObject: {fileID: 0}
  m_Enabled: 1
  m_EditorHideFlags: 0
  m_Script: {fileID: 11500000, guid: 50bcab7a80b1e466d9686a4196113643, type: 3}
  m_Name: MoleLevelConfig002
  m_EditorClassIdentifier: 
  developerDescription: "In diesem Level wird immer ein Maulwurf in einer bestimmten
    Gr\xF6\xDFe erscheinen, aber braucht eine gewisse Anzahl an Ber\xFCgrungen bis
    er verschwindet. "
  levelNumber: 2
  levelTimeInSec: -1
  levelDone: 0
  description:
  - "Diese Maulw\xFCrfe sind hartn\xE4ckiger. Sie m\xFCssen 10 mal schnell getroffen
    werden, damit sie verschwinden."
  levelEnded:
  - Klasse! Die meisten sind nun verjagt!
  lastLevel: 0
  sendFormConfig: {fileID: 11400000, guid: 3d4a48c5bcc184924b741417b59b1cad, type: 2}
  tapLevel: 1
  panLevel: 0
  portraitModus: 0
  scoreMark: 5000
  tapInitInfoObjects: []
  molesAmountAtSameTime: 1
  molesVisibleTime: -1
  sizesAndAmounts:
  - size:
      UseConstant: 0
      ConstantValue: 0
      Variable: {fileID: 11400000, guid: 83bd8e4b6c3634c79b7021e5508b1798, type: 2}
    amount: 10
  - size:
      UseConstant: 0
      ConstantValue: 0
      Variable: {fileID: 11400000, guid: f6f61a5f82a904f20956ae19766144ed, type: 2}
    amount: 10
  bossLevel: 1
  paddingLevel: 0
