%YAML 1.1
%TAG !u! tag:unity3d.com,2011:
--- !u!114 &11400000
MonoBehaviour:
  m_ObjectHideFlags: 0
  m_CorrespondingSourceObject: {fileID: 0}
  m_PrefabInternal: {fileID: 0}
  m_GameObject: {fileID: 0}
  m_Enabled: 1
  m_EditorHideFlags: 0
  m_Script: {fileID: 11500000, guid: fe70163f5ce2495eaa72dd76d77d5e27, type: 3}
  m_Name: VeryGood
  m_EditorClassIdentifier: 
  developerDescription: 
  name: Sehr Gut
  percentageFrom: 90
  percentageTo: 99.989
